{
  "request": {
    "country": "uk",
    "language": "en",
    "location": "newcr",
    "num_res": "20",
    "offset": 0,
    "output": "json_xs",
    "page": 1,
    "pretty": "1",
    "product_type": "realestate",
    "property_type": "property",
    "size_type": "net",
    "size_unit": "m2",
    "sort": "nestoria_rank",
    "listing_type": "buy"
  },
  "response": {
    "application_response_code": "101",
    "application_response_text": "listings returned for best guess of ambiguous location",
    "attribution": {
      "img_height": 22,
      "img_url": "http://resources.nestimg.com/nestoria/img/pbr_v1.png",
      "img_width": 183,
      "link_to_img": "http://www.nestoria.com"
    },
    "created_http": "Mon, 30 May 2016 10:59:23 GMT",
    "created_unix": 1464605963,
    "link_to_url": "http://www.nestoria.co.uk/newcr/property/buy",
    "listings": [
      {
        "bathroom_number": 0,
        "bedroom_number": 0,
        "car_spaces": 0,
        "commission": -1,
        "construction_year": 0,
        "datasource_name": "PrimeLocation",
        "floor": 1,
        "img_height": "",
        "img_url": "http://imgs.nestimg.com/studio_london_8560019463849627546.jpg",
        "img_width": "",
        "keywords": "Terrace, Gym, Sauna, Kitchen, Off Street Parking, Porter, Modern",
        "latitude": 51.58982,
        "lister_name": "Philip Alexander",
        "lister_url": "http://www.nestoria.co.uk/detail/0000008560019463849627546/title/5/1-1?serpUid=&pt=1&ot=1&l=new-river-village&did=69_default&utm_source=api&utm_medium=external",
        "listing_type": "buy",
        "location_accuracy": 9,
        "longitude": -0.115737,
        "price": 320000,
        "price_currency": "£",
        "price_formatted": "£320,000",
        "price_high": 320000,
        "price_low": 320000,
        "price_type": "fixed",
        "property_type": "flat",
        "size": 0,
        "size_type": "net",
        "summary": "Key features: Studio apartmentFirst floorSecure off street parking ...",
        "thumb_height": "",
        "thumb_url": "http://imgs.nestimg.com/medium/studio_london_8560019463849627546.jpg",
        "thumb_width": "",
        "title": "Emerson Apartments, New River Village, Hornsey, N8",
        "updated_in_days": 8,
        "updated_in_days_formatted": "first seen last week"
      },
      {
        "bathroom_number": 0,
        "bedroom_number": 2,
        "car_spaces": 0,
        "commission": -1,
        "construction_year": 0,
        "datasource_name": "OnTheMarket.com",
        "img_height": "",
        "img_url": "http://imgs.nestimg.com/2_bedroom_flat_4290128464256401828.jpg",
        "img_width": "",
        "keywords": "Garden",
        "latitude": 51.5832,
        "lister_name": "Winkworth",
        "lister_url": "http://www.nestoria.co.uk/detail/0000004290128464256401828/title/5/1-2?serpUid=&pt=1&ot=1&l=new-river-village&did=105_high1&utm_source=api&utm_medium=external",
        "listing_type": "buy",
        "location_accuracy": 9,
        "longitude": -0.115681,
        "price": 675000,
        "price_currency": "£",
        "price_formatted": "£675,000",
        "price_high": 675000,
        "price_low": 675000,
        "price_type": "fixed",
        "property_type": "flat",
        "size": 0,
        "size_type": "net",
        "summary": "Two/three bedroom split level ground and first floor period convert...",
        "thumb_height": "",
        "thumb_url": "http://imgs.nestimg.com/medium/2_bedroom_flat_4290128464256401828.jpg",
        "thumb_width": "",
        "title": "Montague Road, N8 - Garden",
        "updated_in_days": 4,
        "updated_in_days_formatted": "first seen 4 days ago"
      },
      {
        "bathroom_number": 1,
        "bedroom_number": 3,
        "car_spaces": 0,
        "commission": -1,
        "construction_year": 0,
        "datasource_name": "Zoopla",
        "img_height": "",
        "img_url": "http://imgs.nestimg.com/terraced_london_3180009464012340419.jpg",
        "img_width": "",
        "keywords": "Garden, Victorian, Kitchen, Loft",
        "latitude": 51.591473,
        "lister_name": "Anthony Pepe",
        "lister_url": "http://www.nestoria.co.uk/detail/0000003180009464012340419/title/5/1-3?serpUid=&pt=1&ot=1&l=new-river-village&did=57_default&utm_source=api&utm_medium=external",
        "listing_type": "buy",
        "location_accuracy": 9,
        "longitude": -0.109937,
        "price": 800000,
        "price_currency": "£",
        "price_formatted": "£800,000",
        "price_high": 800000,
        "price_low": 800000,
        "price_type": "fixed",
        "property_type": "house",
        "size": 0,
        "size_type": "net",
        "summary": "Classic three bedroom bay fronted Victorian mid-terrace located on ...",
        "thumb_height": "",
        "thumb_url": "http://imgs.nestimg.com/medium/terraced_london_3180009464012340419.jpg",
        "thumb_width": "",
        "title": "Malvern Road, N8 - Victorian, Garden",
        "updated_in_days": 4,
        "updated_in_days_formatted": "first seen 4 days ago"
      },
      {
        "bathroom_number": 0,
        "bedroom_number": 5,
        "car_spaces": 0,
        "commission": -1,
        "construction_year": 0,
        "datasource_name": "Home.co.uk",
        "img_height": "",
        "img_url": "http://imgs.nestimg.com/semi_detached_house_5540118464342690643.jpg",
        "img_width": "",
        "keywords": "Refurbished",
        "latitude": 51.580466,
        "lister_name": "Kf&h",
        "lister_url": "http://www.nestoria.co.uk/detail/0000005540118464342690643/title/5/1-4?serpUid=&pt=1&ot=1&l=new-river-village&did=85_default&utm_source=api&utm_medium=external",
        "listing_type": "buy",
        "location_accuracy": 10,
        "longitude": -0.132895,
        "price": 1750000,
        "price_currency": "£",
        "price_formatted": "£1,750,000",
        "price_high": 1750000,
        "price_low": 1750000,
        "price_type": "fixed",
        "property_type": "house",
        "size": 0,
        "size_type": "net",
        "summary": "Beautifully refurbished five bedroom semi detached house located on...",
        "thumb_height": "",
        "thumb_url": "http://imgs.nestimg.com/medium/semi_detached_house_5540118464342690643.jpg",
        "thumb_width": "",
        "title": "Montenotte Road, Crouch End, N8",
        "updated_in_days": 3,
        "updated_in_days_formatted": "first seen 3 days ago"
      },
      {
        "bathroom_number": 0,
        "bedroom_number": 4,
        "car_spaces": 0,
        "commission": -1,
        "construction_year": 0,
        "datasource_name": "NetHousePrices",
        "img_height": "",
        "img_url": "http://imgs.nestimg.com/terraced_9020035457637608693.jpg",
        "img_width": "",
        "keywords": "Garden, Terrace, High Ceilings, Kitchen, Cellar, Reception, Edwardian",
        "latitude": 51.583263,
        "lister_name": "Tatlers",
        "lister_url": "http://www.nestoria.co.uk/detail/0000009020035457637608693/title/5/1-5?serpUid=&pt=1&ot=1&l=new-river-village&did=90_high1&utm_source=api&utm_medium=external",
        "listing_type": "buy",
        "location_accuracy": 9,
        "longitude": -0.115702,
        "price": 1050000,
        "price_currency": "£",
        "price_formatted": "£1,050,000",
        "price_high": 1050000,
        "price_low": 1050000,
        "price_type": "fixed",
        "property_type": "house",
        "size": 0,
        "size_type": "net",
        "summary": "Tatlers are delighted to offer for the first time in 30 years this ...",
        "thumb_height": "",
        "thumb_url": "http://imgs.nestimg.com/medium/terraced_9020035457637608693.jpg",
        "thumb_width": "",
        "title": "Montague Road, N8 - High Ceilings",
        "updated_in_days": 93,
        "updated_in_days_formatted": "first seen over a month ago"
      },
      {
        "bathroom_number": 0,
        "bedroom_number": 1,
        "car_spaces": 0,
        "commission": -1,
        "construction_year": 0,
        "datasource_name": "PrimeLocation",
        "img_height": "",
        "img_url": "http://imgs.nestimg.com/flat_london_2420020463745619720.jpg",
        "img_width": "",
        "keywords": "Shared Garden, Conversion",
        "latitude": 51.577858,
        "lister_name": "Martyn Gerrard",
        "lister_url": "http://www.nestoria.co.uk/detail/0000002420020463745619720/title/5/1-6?serpUid=&pt=1&ot=1&l=new-river-village&did=69_default&utm_source=api&utm_medium=external",
        "listing_type": "buy",
        "location_accuracy": 9,
        "longitude": -0.121759,
        "price": 425000,
        "price_currency": "£",
        "price_formatted": "£425,000",
        "price_high": 425000,
        "price_low": 425000,
        "price_type": "fixed",
        "property_type": "flat",
        "size": 0,
        "size_type": "net",
        "summary": "One bedroom period conversion flat located in central crouch end. o...",
        "thumb_height": "",
        "thumb_url": "http://imgs.nestimg.com/medium/flat_london_2420020463745619720.jpg",
        "thumb_width": "",
        "title": "Haringey Park, Crouch End, N8",
        "updated_in_days": 1,
        "updated_in_days_formatted": "new!"
      },
      {
        "bathroom_number": 1,
        "bedroom_number": 3,
        "car_spaces": 0,
        "commission": -1,
        "construction_year": 0,
        "datasource_name": "PrimeLocation",
        "img_height": "",
        "img_url": "http://imgs.nestimg.com/flat_london_6140020463744413287.jpg",
        "img_width": "",
        "keywords": "Garden, En suite, Refurbished, Kitchen, Reception, Modern",
        "latitude": 51.578007,
        "lister_name": "Keats",
        "lister_url": "http://www.nestoria.co.uk/detail/0000006140020463744413287/title/5/1-7?serpUid=&pt=1&ot=1&l=new-river-village&did=69_default&utm_source=api&utm_medium=external",
        "listing_type": "buy",
        "location_accuracy": 9,
        "longitude": -0.108533,
        "price": 895000,
        "price_currency": "£",
        "price_formatted": "£895,000",
        "price_high": 895000,
        "price_low": 895000,
        "price_type": "fixed",
        "property_type": "flat",
        "size": 0,
        "size_type": "net",
        "summary": "House size accommodation from this three double bedroom newly refur...",
        "thumb_height": "",
        "thumb_url": "http://imgs.nestimg.com/medium/flat_london_6140020463744413287.jpg",
        "thumb_width": "",
        "title": "Mount View Road, N4 - Garden, Modern",
        "updated_in_days": 1,
        "updated_in_days_formatted": "new!"
      },
      {
        "bathroom_number": 1,
        "bedroom_number": 2,
        "car_spaces": 0,
        "commission": -1,
        "construction_year": 0,
        "datasource_name": "PrimeLocation",
        "img_height": "",
        "img_url": "http://imgs.nestimg.com/flat_london_4140018464340967080.jpg",
        "img_width": "",
        "keywords": "Conversion, Kitchen, Reception",
        "latitude": 51.58405,
        "lister_name": "Castles",
        "lister_url": "http://www.nestoria.co.uk/detail/0000004140018464340967080/title/5/1-8?serpUid=&pt=1&ot=1&l=new-river-village&did=69_default&utm_source=api&utm_medium=external",
        "listing_type": "buy",
        "location_accuracy": 9,
        "longitude": -0.114142,
        "price": 550000,
        "price_currency": "£",
        "price_formatted": "£550,000",
        "price_high": 550000,
        "price_low": 550000,
        "price_type": "fixed",
        "property_type": "flat",
        "size": 0,
        "size_type": "net",
        "summary": "Occupying the upper floors of this period residence is this beautif...",
        "thumb_height": "",
        "thumb_url": "http://imgs.nestimg.com/medium/flat_london_4140018464340967080.jpg",
        "thumb_width": "",
        "title": "Rathcoole Avenue, N8 - Kitchen",
        "updated_in_days": 3,
        "updated_in_days_formatted": "first seen 3 days ago"
      },
      {
        "bathroom_number": 2,
        "bedroom_number": 4,
        "car_spaces": 0,
        "commission": -1,
        "construction_year": 0,
        "datasource_name": "PrimeLocation",
        "img_height": "",
        "img_url": "http://imgs.nestimg.com/terraced_london_2500003463564818526.jpg",
        "img_width": "",
        "keywords": "Garden, Kitchen, Cellar",
        "latitude": 51.58238,
        "lister_name": "Castles",
        "lister_url": "http://www.nestoria.co.uk/detail/0000002500003463564818526/title/5/1-9?serpUid=&pt=1&ot=1&l=new-river-village&did=69_default&utm_source=api&utm_medium=external",
        "listing_type": "buy",
        "location_accuracy": 9,
        "longitude": -0.111527,
        "price": 950000,
        "price_currency": "£",
        "price_formatted": "£950,000",
        "price_high": 950000,
        "price_low": 950000,
        "price_type": "fixed",
        "property_type": "house",
        "size": 0,
        "size_type": "net",
        "summary": "Five-bedroom period family home requiring modernisation. Positioned...",
        "thumb_height": "",
        "thumb_url": "http://imgs.nestimg.com/medium/terraced_london_2500003463564818526.jpg",
        "thumb_width": "",
        "title": "Rathcoole Gardens, N8 - Kitchen",
        "updated_in_days": 3,
        "updated_in_days_formatted": "first seen 3 days ago"
      },
      {
        "bathroom_number": 0,
        "bedroom_number": 2,
        "car_spaces": 0,
        "commission": -1,
        "construction_year": 0,
        "datasource_name": "PrimeLocation",
        "floor": 1,
        "img_height": "",
        "img_url": "http://imgs.nestimg.com/flat_london_3530015464426028251.jpg",
        "img_width": "",
        "keywords": "Balcony, Parking",
        "latitude": 51.588398,
        "lister_name": "Bairstow Eves",
        "lister_url": "http://www.nestoria.co.uk/detail/0000003530015464426028251/title/5/1-10?serpUid=&pt=1&ot=1&l=new-river-village&did=69_default&utm_source=api&utm_medium=external",
        "listing_type": "buy",
        "location_accuracy": 9,
        "longitude": -0.119534,
        "price": 590000,
        "price_currency": "£",
        "price_formatted": "£590,000",
        "price_high": 590000,
        "price_low": 590000,
        "price_type": "fixed",
        "property_type": "flat",
        "size": 0,
        "size_type": "net",
        "summary": "Reservations now being taken do not miss out help to buy available....",
        "thumb_height": "",
        "thumb_url": "http://imgs.nestimg.com/medium/flat_london_3530015464426028251.jpg",
        "thumb_width": "",
        "title": "Pembroke Apartments, Campsbourne Rd, N8",
        "updated_in_days": 2,
        "updated_in_days_formatted": "first seen 2 days ago"
      },
      {
        "bathroom_number": 0,
        "bedroom_number": 1,
        "car_spaces": 0,
        "commission": -1,
        "construction_year": 0,
        "datasource_name": "PrimeLocation",
        "floor": 1,
        "img_height": "",
        "img_url": "http://imgs.nestimg.com/flat_london_3520015464426028245.jpg",
        "img_width": "",
        "keywords": "Balcony",
        "latitude": 51.588398,
        "lister_name": "Bairstow Eves",
        "lister_url": "http://www.nestoria.co.uk/detail/0000003520015464426028245/title/5/1-11?serpUid=&pt=1&ot=1&l=new-river-village&did=69_default&utm_source=api&utm_medium=external",
        "listing_type": "buy",
        "location_accuracy": 9,
        "longitude": -0.119534,
        "price": 480000,
        "price_currency": "£",
        "price_formatted": "£480,000",
        "price_high": 480000,
        "price_low": 480000,
        "price_type": "fixed",
        "property_type": "flat",
        "size": 0,
        "size_type": "net",
        "summary": "Reservations now being taken do not miss out help to buy available....",
        "thumb_height": "",
        "thumb_url": "http://imgs.nestimg.com/medium/flat_london_3520015464426028245.jpg",
        "thumb_width": "",
        "title": "Pembroke Apartments, Campsbourne Rd, N8",
        "updated_in_days": 2,
        "updated_in_days_formatted": "first seen 2 days ago"
      },
      {
        "bathroom_number": 0,
        "bedroom_number": 1,
        "car_spaces": 0,
        "commission": -1,
        "construction_year": 0,
        "datasource_name": "PrimeLocation",
        "floor": 2,
        "img_height": "",
        "img_url": "http://imgs.nestimg.com/flat_london_3540015464426028257.jpg",
        "img_width": "",
        "keywords": "Balcony",
        "latitude": 51.588398,
        "lister_name": "Bairstow Eves",
        "lister_url": "http://www.nestoria.co.uk/detail/0000003540015464426028257/title/5/1-12?serpUid=&pt=1&ot=1&l=new-river-village&did=69_default&utm_source=api&utm_medium=external",
        "listing_type": "buy",
        "location_accuracy": 9,
        "longitude": -0.119534,
        "price": 485000,
        "price_currency": "£",
        "price_formatted": "£485,000",
        "price_high": 485000,
        "price_low": 485000,
        "price_type": "fixed",
        "property_type": "flat",
        "size": 0,
        "size_type": "net",
        "summary": "Reservations now being taken do not miss out help to buy available....",
        "thumb_height": "",
        "thumb_url": "http://imgs.nestimg.com/medium/flat_london_3540015464426028257.jpg",
        "thumb_width": "",
        "title": "Pembroke Apartments, Campsbourne Rd, N8",
        "updated_in_days": 2,
        "updated_in_days_formatted": "first seen 2 days ago"
      },
      {
        "bathroom_number": 0,
        "bedroom_number": 2,
        "car_spaces": 0,
        "commission": -1,
        "construction_year": 0,
        "datasource_name": "PrimeLocation",
        "floor": 2,
        "img_height": "",
        "img_url": "http://imgs.nestimg.com/flat_london_3550015464426028268.jpg",
        "img_width": "",
        "keywords": "Balcony, Parking",
        "latitude": 51.588398,
        "lister_name": "Bairstow Eves",
        "lister_url": "http://www.nestoria.co.uk/detail/0000003550015464426028268/title/5/1-13?serpUid=&pt=1&ot=1&l=new-river-village&did=69_default&utm_source=api&utm_medium=external",
        "listing_type": "buy",
        "location_accuracy": 9,
        "longitude": -0.119534,
        "price": 655000,
        "price_currency": "£",
        "price_formatted": "£655,000",
        "price_high": 655000,
        "price_low": 655000,
        "price_type": "fixed",
        "property_type": "flat",
        "size": 0,
        "size_type": "net",
        "summary": "Reservations now being taken do not miss out disclaimer, internal i...",
        "thumb_height": "",
        "thumb_url": "http://imgs.nestimg.com/medium/flat_london_3550015464426028268.jpg",
        "thumb_width": "",
        "title": "Pembroke Apartments, Campsbourne Rd, N8",
        "updated_in_days": 2,
        "updated_in_days_formatted": "first seen 2 days ago"
      },
      {
        "bathroom_number": 0,
        "bedroom_number": 3,
        "car_spaces": 0,
        "commission": -1,
        "construction_year": 0,
        "datasource_name": "PrimeLocation",
        "img_height": "",
        "img_url": "http://imgs.nestimg.com/flat_london_3560015464426028273.jpg",
        "img_width": "",
        "keywords": "Balcony, Parking",
        "latitude": 51.588398,
        "lister_name": "Bairstow Eves",
        "lister_url": "http://www.nestoria.co.uk/detail/0000003560015464426028273/title/5/1-14?serpUid=&pt=1&ot=1&l=new-river-village&did=69_default&utm_source=api&utm_medium=external",
        "listing_type": "buy",
        "location_accuracy": 9,
        "longitude": -0.119534,
        "price": 755000,
        "price_currency": "£",
        "price_formatted": "£755,000",
        "price_high": 755000,
        "price_low": 755000,
        "price_type": "fixed",
        "property_type": "flat",
        "size": 0,
        "size_type": "net",
        "summary": "Reservations now being taken do not miss out disclaimer, internal i...",
        "thumb_height": "",
        "thumb_url": "http://imgs.nestimg.com/medium/flat_london_3560015464426028273.jpg",
        "thumb_width": "",
        "title": "Pembroke Apartments, Campsbourne Rd, N8",
        "updated_in_days": 2,
        "updated_in_days_formatted": "first seen 2 days ago"
      },
      {
        "bathroom_number": 2,
        "bedroom_number": 5,
        "car_spaces": 0,
        "commission": -1,
        "construction_year": 0,
        "datasource_name": "PrimeLocation",
        "img_height": "",
        "img_url": "http://imgs.nestimg.com/terraced_london_4130018464340967075.jpg",
        "img_width": "",
        "keywords": "Garden, Kitchen, Reception",
        "latitude": 51.577854,
        "lister_name": "Castles",
        "lister_url": "http://www.nestoria.co.uk/detail/0000004130018464340967075/title/5/1-15?serpUid=&pt=1&ot=1&l=new-river-village&did=69_default&utm_source=api&utm_medium=external",
        "listing_type": "buy",
        "location_accuracy": 9,
        "longitude": -0.118108,
        "price": 1699999,
        "price_currency": "£",
        "price_formatted": "£1,699,999",
        "price_high": 1699999,
        "price_low": 1699999,
        "price_type": "fixed",
        "property_type": "house",
        "size": 0,
        "size_type": "net",
        "summary": "Four to five-bedroom period home positioned on a much favoured cher...",
        "thumb_height": "",
        "thumb_url": "http://imgs.nestimg.com/medium/terraced_london_4130018464340967075.jpg",
        "thumb_width": "",
        "title": "Cecile Park, N8 - Kitchen, Reception",
        "updated_in_days": 3,
        "updated_in_days_formatted": "first seen 3 days ago"
      },
      {
        "bathroom_number": 0,
        "bedroom_number": 3,
        "car_spaces": 0,
        "commission": -1,
        "construction_year": 0,
        "datasource_name": "PrimeLocation",
        "img_height": "",
        "img_url": "http://imgs.nestimg.com/flat_6980020463745369358.jpg",
        "img_width": "",
        "keywords": "Garden, Patio",
        "latitude": 51.578007,
        "lister_name": "Foxtons",
        "lister_url": "http://www.nestoria.co.uk/detail/0000006980020463745369358/title/5/1-16?serpUid=&pt=1&ot=1&l=new-river-village&did=69_default&utm_source=api&utm_medium=external",
        "listing_type": "buy",
        "location_accuracy": 9,
        "longitude": -0.108533,
        "price": 899950,
        "price_currency": "£",
        "price_formatted": "£899,950",
        "price_high": 899950,
        "price_low": 899950,
        "price_type": "fixed",
        "property_type": "flat",
        "size": 0,
        "size_type": "net",
        "summary": "Boasting interiors finished to an standard this three bedroom apart...",
        "thumb_height": "",
        "thumb_url": "http://imgs.nestimg.com/medium/flat_6980020463745369358.jpg",
        "thumb_width": "",
        "title": "Mount View Road, Stroud Green, N4",
        "updated_in_days": 2,
        "updated_in_days_formatted": "first seen 2 days ago"
      },
      {
        "bathroom_number": 0,
        "bedroom_number": 3,
        "car_spaces": 0,
        "commission": -1,
        "construction_year": 0,
        "datasource_name": "PrimeLocation",
        "img_height": "",
        "img_url": "http://imgs.nestimg.com/maisonette_london_8310003463564817431.jpg",
        "img_width": "",
        "keywords": "Garden, Refurbished",
        "latitude": 51.578007,
        "lister_name": "Martyn Gerrard",
        "lister_url": "http://www.nestoria.co.uk/detail/0000008310003463564817431/title/5/1-17?serpUid=&pt=1&ot=1&l=new-river-village&did=69_default&utm_source=api&utm_medium=external",
        "listing_type": "buy",
        "location_accuracy": 9,
        "longitude": -0.108533,
        "price": 889950,
        "price_currency": "£",
        "price_formatted": "£889,950",
        "price_high": 889950,
        "price_low": 889950,
        "price_type": "fixed",
        "property_type": "house",
        "size": 0,
        "size_type": "net",
        "summary": "Newly refurbished three bedroom, two bathroom garden maisonette, wi...",
        "thumb_height": "",
        "thumb_url": "http://imgs.nestimg.com/medium/maisonette_london_8310003463564817431.jpg",
        "thumb_width": "",
        "title": "Mount View Road, Stroud Green, N4",
        "updated_in_days": 2,
        "updated_in_days_formatted": "first seen 2 days ago"
      },
      {
        "bathroom_number": 1,
        "bedroom_number": 2,
        "car_spaces": 0,
        "commission": -1,
        "construction_year": 0,
        "datasource_name": "PrimeLocation",
        "img_height": "",
        "img_url": "http://imgs.nestimg.com/flat_london_7590015464426995000.jpg",
        "img_width": "",
        "keywords": "En suite, Maisonette, Fireplace, Gym, Victorian, Kitchen, Loft, Reception",
        "latitude": 51.58866,
        "lister_name": "Purplebricks",
        "lister_url": "http://www.nestoria.co.uk/detail/0000007590015464426995000/title/5/1-18?serpUid=&pt=1&ot=1&l=new-river-village&did=69_default&utm_source=api&utm_medium=external",
        "listing_type": "buy",
        "location_accuracy": 9,
        "longitude": -0.105074,
        "price": 500000,
        "price_currency": "£",
        "price_formatted": "£500,000",
        "price_high": 500000,
        "price_low": 500000,
        "price_type": "fixed",
        "property_type": "flat",
        "size": 0,
        "size_type": "net",
        "summary": "Open day saturday 4th june 10am 11am by appointment only a two doub...",
        "thumb_height": "",
        "thumb_url": "http://imgs.nestimg.com/medium/flat_london_7590015464426995000.jpg",
        "thumb_width": "",
        "title": "Raleigh Road, N8 - Maisonette, Gym",
        "updated_in_days": 2,
        "updated_in_days_formatted": "first seen 2 days ago"
      },
      {
        "bathroom_number": 0,
        "bedroom_number": 4,
        "car_spaces": 0,
        "commission": -1,
        "construction_year": 0,
        "datasource_name": "PrimeLocation",
        "img_height": "",
        "img_url": "http://imgs.nestimg.com/london_8670015464426553425.jpg",
        "img_width": "",
        "keywords": "Garden, En suite, Kitchen, Loft, Reception",
        "latitude": 51.577637,
        "lister_name": "Greene",
        "lister_url": "http://www.nestoria.co.uk/detail/0000008670015464426553425/title/5/1-19?serpUid=&pt=1&ot=1&l=new-river-village&did=69_default&utm_source=api&utm_medium=external",
        "listing_type": "buy",
        "location_accuracy": 9,
        "longitude": -0.127512,
        "price": 1600000,
        "price_currency": "£",
        "price_formatted": "£1,600,000",
        "price_high": 1600000,
        "price_low": 1600000,
        "price_type": "fixed",
        "property_type": "house",
        "size": 0,
        "size_type": "net",
        "summary": "Four bedroom house on a road in central Crouch End, just moments fr...",
        "thumb_height": "",
        "thumb_url": "http://imgs.nestimg.com/medium/london_8670015464426553425.jpg",
        "thumb_width": "",
        "title": "Coleridge Road, N8 - Kitchen, Garden",
        "updated_in_days": 2,
        "updated_in_days_formatted": "first seen 2 days ago"
      },
      {
        "bathroom_number": 1,
        "bedroom_number": 2,
        "car_spaces": 0,
        "commission": -1,
        "construction_year": 0,
        "datasource_name": "PrimeLocation",
        "floor": 1,
        "img_height": "",
        "img_url": "http://imgs.nestimg.com/flat_london_6140004463475035378.jpg",
        "img_width": "",
        "keywords": "Kitchen, Parking, Modern",
        "latitude": 51.57316,
        "lister_name": "Davies & Davies",
        "lister_url": "http://www.nestoria.co.uk/detail/0000006140004463475035378/title/5/1-20?serpUid=&pt=1&ot=1&l=new-river-village&did=69_high1&utm_source=api&utm_medium=external",
        "listing_type": "buy",
        "location_accuracy": 9,
        "longitude": -0.119644,
        "price": 400000,
        "price_currency": "£",
        "price_formatted": "£400,000",
        "price_high": 400000,
        "price_low": 400000,
        "price_type": "fixed",
        "property_type": "flat",
        "size": 0,
        "size_type": "net",
        "summary": "Fancy a room with a view? Two double bedroom apartment, with privat...",
        "thumb_height": "",
        "thumb_url": "http://imgs.nestimg.com/medium/flat_london_6140004463475035378.jpg",
        "thumb_width": "",
        "title": "Blythwood Road, Stroud Green, N4",
        "updated_in_days": 2,
        "updated_in_days_formatted": "first seen 2 days ago"
      }
    ],
    "locations": [
      {
        "center_lat": 51.58295,
        "center_long": -0.117061,
        "long_title": "New River Village",
        "place_name": "new-river-village",
        "title": "New River Village"
      }
    ],
    "page": 1,
    "sort": "nestoria_rank",
    "status_code": "200",
    "status_text": "OK",
    "thanks": "For using the Nestoria API.",
    "total_pages": 24,
    "total_results": 486,
    "listing_type": "buy"
  }
}